IS415 - Take-home Exercise 3
…
mrtstation <- rbind(mrtstation, mrtstations_to_add)

Some MRT stations coexist in multiple lines (e.g. Bishan at the Northeast and Circle Line). They however have different coordinates so I will not be removing them from the data frame.

Lastly, transform the data frame into a spatial point data frame using the st_as_sf() function.

mrtstation_sf <- st_as_sf(mrtstation, coords = c("Longitude", "Latitude"))
mrtstation_sf

Simple feature collection with 200 features and 1 field
Geometry type: POINT
Dimension:     XY
Bounding box:  xmin: 103.6369 ymin: 1.265473 xmax: 103.9883 ymax: 1.449051
CRS:           NA
# A tibble: 200 × 2
   STN_NAME                            geometry
   <chr>                                <POINT>
 1 ADMIRALTY MRT STATION     (103.801 1.440585)
 2 ALJUNIED MRT STATION     (103.8829 1.316433)
 3 ANG MO KIO MRT STATION   (103.8496 1.369933)
 4 BAKAU LRT STATION        (103.9054 1.388093)
 5 BANGKIT LRT STATION      (103.7727 1.380018)
 6 BARTLEY MRT STATION      (103.8797 1.342828)
 7 BAYFRONT MRT STATION     (103.8591 1.281874)
 8 BAYFRONT MRT STATION     (103.8591 1.281874)
 9 BEAUTY WORLD MRT STATION (103.7758 1.341223)
10 BEDOK MRT STATION           (103.93 1.32398)
# … with 190 more rows
