IS415 - Hands-on Exercise 1: Geospatial Wrangling with R
…
5 Aspatial Data

5.1 Importing Data

listings <- read_csv("data/aspatial/listings.csv")

5.2 Understanding the Data

list() instead of glimpse()

list(listings)

[[1]]
# A tibble: 3,037 × 18
       id name     host_id host_…¹ neigh…² neigh…³ latit…⁴ longi…⁵ room_…⁶ price
    <dbl> <chr>      <dbl> <chr>   <chr>   <chr>     <dbl>   <dbl> <chr>   <dbl>
 1  71609 Ensuite…  367042 Belinda East R… Tampin…    1.35    104. Privat… 46437
 2  71896 B&B  Ro…  367042 Belinda East R… Tampin…    1.35    104. Privat…    81
 3  71903 Room 2-…  367042 Belinda East R… Tampin…    1.35    104. Privat…    81
 4 275343 Amazing… 1439258 Kay     Centra… Bukit …    1.29    104. Privat…    52
 5 275344 15 mins… 1439258 Kay     Centra… Bukit …    1.29    104. Privat…    49
 6 289234 Booking…  367042 Belinda East R… Tampin…    1.34    104. Privat…   175
 7 294281 5 mins … 1521514 Elizab… Centra… Newton     1.31    104. Privat…    79
 8 324945 Cozy Bl… 1439258 Kay     Centra… Bukit …    1.29    104. Privat…    49
 9 330089 Cozy Bl… 1439258 Kay     Centra… Bukit …    1.29    104. Privat…    55
10 330095 10 mins… 1439258 Kay     Centra… Bukit …    1.29    104. Privat…    55
# … with 3,027 more rows, 8 more variables: minimum_nights <dbl>,
#   number_of_reviews <dbl>, last_review <date>, reviews_per_month <dbl>,
#   calculated_host_listings_count <dbl>, availability_365 <dbl>,
#   number_of_reviews_ltm <dbl>, license <chr>, and abbreviated variable names
#   ¹​host_name, ²​neighbourhood_group, ³​neighbourhood, ⁴​latitude, ⁵​longitude,
#   ⁶​room_type
…
