IS415 - In-Class Exercise 2: Geospatial Data Wrangling
…
1.1.1 Aspatial Data

pacman::p_load(sf, tidyverse, funModeling)

Importing WPdx+ (Nigeria) data set

wp_nga <- read_csv("data/aspatial/wpdx.csv")

Creating Feature Data Frame for WPDX

#wp_nga$Geometry = st_as_sfc(wp_nga$`New Georeferenced Column`)

wp_nga

# A tibble: 1,000 × 70
   row_id source     lat_deg lon_deg report_date         statu…¹ water…² water…³
    <dbl> <chr>        <dbl>   <dbl> <dttm>              <chr>   <chr>   <chr>  
 1 429068 GRID3         7.98    5.12 2018-08-29 00:00:00 Unknown <NA>    <NA>   
 2 222071 Federal M…    6.96    3.60 2015-08-16 00:00:00 Yes     Boreho… Well   
 3 160612 WaterAid      6.49    7.93 2020-12-04 00:00:00 Yes     Boreho… Well   
 4 160669 WaterAid      6.73    7.65 2020-12-04 00:00:00 Yes     Boreho… Well   
 5 160642 WaterAid      6.78    7.66 2020-12-04 00:00:00 Yes     Boreho… Well   
 6 160628 WaterAid      6.96    7.78 2020-12-04 00:00:00 Yes     Boreho… Well   
 7 160632 WaterAid      7.02    7.84 2020-12-04 00:00:00 Yes     Boreho… Well   
 8 642747 Living Wa…    7.33    8.98 2016-10-03 00:00:00 Yes     Boreho… Well   
 9 642456 Living Wa…    7.17    9.11 2016-10-03 00:00:00 Yes     Boreho… Well   
10 641347 Living Wa…    7.20    9.22 2015-03-28 00:00:00 Yes     Boreho… Well   
# … with 990 more rows, 62 more variables: water_tech_clean <chr>,
#   `_water_tech_category` <chr>, facility_type <chr>,
#   clean_country_name <chr>, clean_adm1 <chr>, clean_adm2 <chr>,
#   clean_adm3 <lgl>, clean_adm4 <lgl>, install_year <dbl>, installer <chr>,
#   rehab_year <lgl>, rehabilitator <lgl>, management_clean <chr>,
#   status_clean <chr>, pay <chr>, fecal_coliform_presence <lgl>,
#   fecal_coliform_value <dbl>, subjective_quality <chr>, activity_id <chr>, …
…
